/* XPM */
static char * top_left_inactive_xpm[] = {
"8 29 8 1",
" 	c None",
".	c #000000",
"+	c #1A1C22",
"@	c #1C1E24",
"#	c #2D313A",
"$	c #2F343F",
"%	c #1B1D23",
"&	c #20232A",
" .+++++@",
".#$$$$$$",
"%$$$$$$$",
"%$$$$$$$",
"%$$$$$$$",
"%$$$$$$$",
"%$$$$$$$",
"%$$$$$$$",
"+$$$$$$$",
"+$$$$$$$",
"+$$$$$$$",
"+$$$$$$$",
"+$$$$$$$",
"+$$$$$$$",
"+$$$$$$$",
"+$$$$$$$",
"+$$$$$$$",
"+$$$$$$$",
"+$$$$$$$",
"+$$$$$$$",
"+$$$$$$$",
"+$$$$$$$",
"+$$$$$$$",
"+$$$$$$$",
"+$$$$$$$",
"+$$$$$$$",
"+$$$$$$$",
"+$$$$$$$",
"&$$$$$$$"};
